%YAML 1.1
%TAG !u! tag:unity3d.com,2011:
--- !u!114 &11400000
MonoBehaviour:
  m_ObjectHideFlags: 0
  m_CorrespondingSourceObject: {fileID: 0}
  m_PrefabInternal: {fileID: 0}
  m_GameObject: {fileID: 0}
  m_Enabled: 1
  m_EditorHideFlags: 0
  m_Script: {fileID: 11500000, guid: 62411a1529de4fab88403e8a72b18eab, type: 3}
  m_Name: TouchLayoutHandler
  m_EditorClassIdentifier: 
  _touchLayouts:
  - {fileID: 11400000, guid: d1fa3aca3216148e191149883ffc3af1, type: 2}
  - {fileID: 11400000, guid: 52c886754705e4fe6a5a29264912afd2, type: 2}
